%FSLAX35Y35*%
%MOIN*%
G04 EasyPC Gerber Version 18.0.9 Build 3640 *
%ADD88R,0.06000X0.06000*%
%ADD11C,0.00500*%
%ADD13C,0.01000*%
%ADD90C,0.01969*%
%ADD21C,0.04800*%
%ADD89C,0.06000*%
%ADD87C,0.08661*%
X0Y0D02*
D02*
D11*
X1144Y1144D02*
X124356D01*
Y220606*
X1144*
Y1144*
X9638Y167750D02*
G75*
G02X20862I5612D01*
G01*
G75*
G02X9638I-5612*
G01*
Y187750D02*
G75*
G02X20862I5612D01*
G01*
G75*
G02X9638I-5612*
G01*
X12169Y107750D02*
G75*
G02X23331I5581D01*
G01*
G75*
G02X12169I-5581*
G01*
X14591Y26222D02*
G75*
G02X10888Y31500I1909J5278D01*
G01*
G75*
G02X22112I5612*
G01*
G75*
G02X20909Y28028I-5612*
G01*
G75*
G02X24000Y25299I-1909J-5278*
G01*
G75*
G02X32572Y27079I5000J-2548*
G01*
X40006Y28472*
G75*
G02X43388Y36475I3994J3028*
G01*
G75*
G02Y36500I5574J13*
G01*
G75*
G02X44055Y39154I5612*
G01*
X44000*
G75*
G02X36654Y46500J7346*
G01*
Y58009*
G75*
G02Y64991I3596J3491*
G01*
Y71500*
G75*
G02X36887Y73630I9846J1*
G01*
G75*
G02X34000Y72904I-2887J5369*
G01*
X28722*
G75*
G02X27703Y62268I-2222J-5154*
G01*
G75*
G02X27762Y61500I-4952J-767*
G01*
G75*
G02X19063Y58105I-5012*
G01*
G75*
G02X16654Y61500I1187J3395*
G01*
Y72750*
G75*
G02X24000Y80096I7346*
G01*
X31555*
G75*
G02X36500Y88362I4945J2654*
G01*
G75*
G02X41319Y79873J-5612*
G01*
G75*
G02X46500Y81346I5182J-8374*
G01*
X52192*
G75*
G02X62112Y77750I4308J-3596*
G01*
G75*
G02X52192Y74154I-5612*
G01*
X46500*
G75*
G03X43846Y71500J-2654*
G01*
Y71070*
G75*
G02X46500Y72000I2654J-3320*
G01*
G75*
G02Y63500J-4250*
G01*
G75*
G02X44633Y63932J4250*
G01*
G75*
G02X43846Y58009I-4383J-2432*
G01*
Y51222*
G75*
G02X54000Y51549I5154J-2222*
G01*
G75*
G02X54591Y52472I5000J-2548*
G01*
G75*
G02X50888Y57750I1909J5278*
G01*
G75*
G02X62112I5612*
G01*
G75*
G02X60909Y54278I-5612*
G01*
G75*
G02X63375Y52515I-1909J-5278*
G01*
G75*
G02X65503Y54143I4375J-3515*
G01*
G75*
G02X69154Y61761I2247J3607*
G01*
Y72316*
G75*
G02X62138Y77750I-1404J5434*
G01*
G75*
G02X69154Y83184I5612*
G01*
Y84000*
G75*
G03X66500Y86654I-2654*
G01*
G75*
G02X57904Y95250J8596*
G01*
Y122904*
X56500*
G75*
G02X52112Y124358J7346*
G01*
Y90888*
X40888*
Y103001*
G75*
G02X30888Y106500I-4388J3499*
G01*
G75*
G02X40888Y109999I5612*
G01*
Y132112*
X49154*
Y149055*
G75*
G02X41500Y151451I-2654J4945*
G01*
G75*
G02X40676Y150250I-5000J2548*
G01*
G75*
G02X42112Y146500I-4176J-3750*
G01*
G75*
G02X30888I-5612*
G01*
G75*
G02X32324Y150250I5612J0*
G01*
G75*
G02X31193Y152173I4175J3750*
G01*
G75*
G02X20888Y155250I-4693J3077*
G01*
G75*
G02X31807Y157077I5612*
G01*
G75*
G02X41500Y156549I4693J-3077*
G01*
G75*
G02X49154Y158945I5000J-2549*
G01*
Y168566*
G75*
G02X43442Y170404I-1404J5433*
G01*
X32491*
G75*
G02X24144Y175240I-3491J3596*
G01*
G75*
G02X18988Y180250I-144J5010*
G01*
G75*
G02X27450Y183886I5012*
G01*
X45284*
G75*
G02X44638Y186500I4966J2614*
G01*
G75*
G02X55862I5612*
G01*
G75*
G02X55195Y183846I-5612*
G01*
X59055*
G75*
G02X60404Y190808I4945J2654*
G01*
Y192750*
G75*
G02X67750Y200096I7346*
G01*
X72192*
G75*
G02X80072Y200829I4308J-3596*
G01*
X91603Y202991*
G75*
G02X101500Y202799I4897J-2741*
G01*
G75*
G02X106500Y205862I5000J-2549*
G01*
G75*
G02X110909Y196778J-5612*
G01*
G75*
G02X114612Y191500I-1909J-5278*
G01*
G75*
G02X103388I-5612*
G01*
G75*
G02X104591Y194972I5612*
G01*
G75*
G02X101500Y197701I1909J5278*
G01*
G75*
G02X92928Y195921I-5000J2548*
G01*
X85494Y194528*
G75*
G02X82112Y186525I-3994J-3028*
G01*
G75*
G02Y186500I-5596J-13*
G01*
G75*
G02X81445Y183846I-5612*
G01*
X81500*
G75*
G02X88846Y176500J-7346*
G01*
Y162491*
G75*
G02Y155509I-3596J-3491*
G01*
Y151500*
G75*
G02X88613Y149370I-9846J-1*
G01*
G75*
G02X91500Y150096I2887J-5370*
G01*
X96778*
G75*
G02X97797Y160732I2222J5154*
G01*
G75*
G02X97738Y161500I4952J767*
G01*
G75*
G02X106437Y164895I5012*
G01*
G75*
G02X108846Y161500I-1187J-3395*
G01*
Y150250*
G75*
G02X101500Y142904I-7346*
G01*
X93945*
G75*
G02X89000Y134638I-4945J-2654*
G01*
G75*
G02X84181Y143127J5612*
G01*
G75*
G02X79000Y141654I-5181J8373*
G01*
X73308*
G75*
G02X63388Y145250I-4308J3596*
G01*
G75*
G02X73308Y148846I5612*
G01*
X79000*
G75*
G03X81654Y151500J2654*
G01*
Y151930*
G75*
G02X79000Y151000I-2654J3320*
G01*
G75*
G02Y159500J4250*
G01*
G75*
G02X80248Y159313I0J-4250*
G01*
G75*
G02X81654Y162491I5002J-313*
G01*
Y171778*
G75*
G02X71500Y171451I-5154J2222*
G01*
G75*
G02X70909Y170528I-5000J2548*
G01*
G75*
G02X74612Y165250I-1909J-5278*
G01*
G75*
G02X63388I-5612*
G01*
G75*
G02X64591Y168722I5612*
G01*
G75*
G02X62125Y170485I1909J5277*
G01*
G75*
G02X59997Y168857I-4375J3515*
G01*
G75*
G02X56346Y161239I-2247J-3607*
G01*
Y150684*
G75*
G02X63362Y145250I1404J-5434*
G01*
G75*
G02X56346Y139816I-5612*
G01*
Y130250*
G75*
G03X56500Y130096I154*
G01*
X70888*
Y132112*
X82112*
Y90888*
X73536*
G75*
G02X76346Y84000I-7037J-6888*
G01*
Y73945*
G75*
G02X84000Y71549I2654J-4945*
G01*
G75*
G02X94307Y70827I5000J-2549*
G01*
G75*
G02X104612Y67750I4693J-3077*
G01*
G75*
G02X93693Y65923I-5612*
G01*
G75*
G02X84000Y66451I-4693J3077*
G01*
G75*
G02X76346Y64055I-5000J2549*
G01*
Y54434*
G75*
G02X82058Y52596I1404J-5434*
G01*
X93009*
G75*
G02X101356Y47760I3491J-3596*
G01*
G75*
G02X106512Y42750I144J-5010*
G01*
G75*
G02X98050Y39114I-5012*
G01*
X80216*
G75*
G02X80862Y36500I-4966J-2614*
G01*
G75*
G02X69638I-5612*
G01*
G75*
G02X70305Y39154I5612*
G01*
X66445*
G75*
G02X65096Y32192I-4945J-2654*
G01*
Y30250*
G75*
G02X57750Y22904I-7346*
G01*
X53308*
G75*
G02X45428Y22171I-4308J3596*
G01*
X33897Y20009*
G75*
G02X24000Y20201I-4897J2741*
G01*
G75*
G02X19000Y17138I-5000J2549*
G01*
G75*
G02X14591Y26222J5612*
G01*
X16500Y87000D02*
G75*
G02Y78500J-4250D01*
G01*
G75*
G02Y87000J4250*
G01*
X17750Y130750D02*
G75*
G02Y122250J-4250D01*
G01*
G75*
G02Y130750J4250*
G01*
X20750Y51500D02*
G75*
G02X12250I-4250D01*
G01*
G75*
G02X20750I4250*
G01*
X22750Y198951D02*
G75*
G02X17750Y195888I-5000J2549D01*
G01*
G75*
G02Y207112J5612*
G01*
G75*
G02X22750Y204049J-5612*
G01*
G75*
G02X31586Y205597I5000J-2549*
G01*
G75*
G02X31000Y207750I3664J2153*
G01*
G75*
G02X39500I4250*
G01*
G75*
G02X32471Y204534I-4250*
G01*
G75*
G02X33169Y202962I-4722J-3034*
G01*
G75*
G02X40862Y197750I2081J-5212*
G01*
G75*
G02X29831Y196288I-5612*
G01*
G75*
G02X22750Y198951I-2081J5212*
G01*
X23701Y130386D02*
G75*
G02X20888Y135250I2799J4864D01*
G01*
G75*
G02X32112I5612*
G01*
G75*
G02X30549Y131364I-5612*
G01*
G75*
G02X27750Y120888I-2799J-4864*
G01*
G75*
G02X23701Y130386J5612*
G01*
X46000Y206500D02*
G75*
G02X54500I4250D01*
G01*
G75*
G02X46000I-4250*
G01*
X58388D02*
G75*
G02X69612I5612D01*
G01*
G75*
G02X58388I-5612*
G01*
X67112Y16500D02*
G75*
G02X55888I-5612D01*
G01*
G75*
G02X67112I5612*
G01*
X79500D02*
G75*
G02X71000I-4250D01*
G01*
G75*
G02X79500I4250*
G01*
X85201Y91500D02*
G75*
G02X82138Y96500I2549J5000D01*
G01*
G75*
G02X92750Y99049I5612*
G01*
G75*
G02X97750Y102112I5000J-2549*
G01*
G75*
G02X101799Y92614J-5612*
G01*
G75*
G02X104612Y87750I-2799J-4864*
G01*
G75*
G02X93388I-5612*
G01*
G75*
G02X94951Y91636I5612*
G01*
G75*
G02X92750Y93951I2799J4865*
G01*
G75*
G02X90299Y91500I-5000J2549*
G01*
G75*
G02X93362Y86500I-2549J-5000*
G01*
G75*
G02X82138I-5612*
G01*
G75*
G02X85201Y91500I5612*
G01*
X92331Y20038D02*
G75*
G02X84638Y25250I-2081J5212D01*
G01*
G75*
G02X95669Y26712I5612*
G01*
G75*
G02X102750Y24049I2081J-5212*
G01*
G75*
G02X107750Y27112I5000J-2549*
G01*
G75*
G02Y15888J-5612*
G01*
G75*
G02X102750Y18951J5612*
G01*
G75*
G02X93914Y17403I-5000J2549*
G01*
G75*
G02X94500Y15250I-3664J-2153*
G01*
G75*
G02X86000I-4250*
G01*
G75*
G02X93029Y18466I4250*
G01*
G75*
G02X92331Y20038I4721J3034*
G01*
X103419Y117750D02*
G75*
G02X114581I5581D01*
G01*
G75*
G02X103419I-5581*
G01*
X104750Y171500D02*
G75*
G02X113250I4250D01*
G01*
G75*
G02X104750I-4250*
G01*
X107750Y92250D02*
G75*
G02Y100750J4250D01*
G01*
G75*
G02Y92250J-4250*
G01*
X109000Y136000D02*
G75*
G02Y144500J4250D01*
G01*
G75*
G02Y136000J-4250*
G01*
X115862Y35250D02*
G75*
G02X104638I-5612D01*
G01*
G75*
G02X115862I5612*
G01*
Y55250D02*
G75*
G02X104638I-5612D01*
G01*
G75*
G02X115862I5612*
G01*
X1144Y167750D02*
G36*
Y140250D01*
X23951*
G75*
G02X29049I2549J-5000*
G01*
X49154*
Y149055*
G75*
G02X41500Y151451I-2654J4945*
G01*
G75*
G02X40676Y150250I-5000J2548*
G01*
G75*
G02X42112Y146500I-4176J-3750*
G01*
G75*
G02X30888I-5612*
G01*
G75*
G02X32324Y150250I5612J0*
G01*
G75*
G02X31193Y152173I4175J3750*
G01*
G75*
G02X20888Y155250I-4693J3077*
G01*
G75*
G02X31807Y157077I5612*
G01*
G75*
G02X41500Y156549I4693J-3077*
G01*
G75*
G02X49154Y158945I5000J-2549*
G01*
Y167750*
X20862*
G75*
G02X9638I-5612*
G01*
X1144*
G37*
X9638D02*
G36*
G75*
G02X20862I5612D01*
G01*
X49154*
Y168566*
G75*
G02X43442Y170404I-1404J5433*
G01*
X32491*
G75*
G02X24144Y175240I-3491J3596*
G01*
G75*
G02X18988Y180250I-144J5010*
G01*
G75*
G02X27450Y183886I5012*
G01*
X45284*
G75*
G02X44638Y186500I4966J2614*
G01*
G75*
G02X44779Y187750I5612*
G01*
X20862*
G75*
G02X9638I-5612*
G01*
X1144*
Y167750*
X9638*
G37*
X88846D02*
G36*
Y162491D01*
G75*
G02Y155509I-3596J-3491*
G01*
Y151500*
G75*
G02X88613Y149370I-9846J-1*
G01*
G75*
G02X91500Y150096I2887J-5370*
G01*
X96778*
G75*
G02X97797Y160732I2222J5154*
G01*
G75*
G02X97738Y161500I4952J767*
G01*
G75*
G02X106437Y164895I5012*
G01*
G75*
G02X108846Y161500I-1187J-3395*
G01*
Y150250*
G75*
G02X101500Y142904I-7346*
G01*
X93945*
G75*
G02X94612Y140250I-4945J-2654*
G01*
X104750*
G75*
G02X109000Y144500I4250*
G01*
G75*
G02X113250Y140250J-4250*
G01*
X124356*
Y167750*
X111000*
G75*
G02X107000I-2000J3750*
G01*
X88846*
G37*
X107000D02*
G36*
G75*
G02X104750Y171500I2000J3750D01*
G01*
G75*
G02X113250I4250*
G01*
G75*
G02X111000Y167750I-4250*
G01*
X124356*
Y187750*
X113176*
G75*
G02X103388Y191500I-4176J3750*
G01*
G75*
G02X104591Y194972I5612*
G01*
G75*
G02X101500Y197701I1909J5278*
G01*
G75*
G02X92928Y195921I-5000J2548*
G01*
X85494Y194528*
G75*
G02X82112Y186525I-3994J-3028*
G01*
G75*
G02Y186500I-5596J-13*
G01*
G75*
G02X81445Y183846I-5612*
G01*
X81500*
G75*
G02X88846Y176500J-7346*
G01*
Y167750*
X107000*
G37*
X9638Y187750D02*
G36*
G75*
G02X20862I5612D01*
G01*
X44779*
G75*
G02X55862Y186500I5471J-1250*
G01*
G75*
G02X55195Y183846I-5612*
G01*
X59055*
G75*
G02X60404Y190808I4945J2654*
G01*
Y192750*
G75*
G02X67750Y200096I7346*
G01*
X72192*
G75*
G02X75805Y202069I4308J-3596*
G01*
X67444*
G75*
G02X60556I-3444J4431*
G01*
X38834*
G75*
G02X40862Y197750I-3584J-4319*
G01*
G75*
G02X29831Y196288I-5612*
G01*
G75*
G02X22750Y198951I-2081J5212*
G01*
G75*
G02X17750Y195888I-5000J2549*
G01*
G75*
G02X12167Y202069J5612*
G01*
X1144*
Y187750*
X9638*
G37*
X124356D02*
G36*
Y202069D01*
X111809*
G75*
G02X110909Y196778I-5309J-1819*
G01*
G75*
G02X114612Y191500I-1909J-5278*
G01*
G75*
G02X113176Y187750I-5612*
G01*
X124356*
G37*
X1144Y107750D02*
G36*
Y96500D01*
X40888*
Y103001*
G75*
G02X30888Y106500I-4388J3499*
G01*
G75*
G02X31029Y107750I5612*
G01*
X23331*
G75*
G02X12169I-5581*
G01*
X1144*
G37*
X12169D02*
G36*
G75*
G02X23331I5581D01*
G01*
X31029*
G75*
G02X40888Y109999I5471J-1250*
G01*
Y117750*
X1144*
Y107750*
X12169*
G37*
X82112D02*
G36*
Y96500D01*
X82138*
G75*
G02X92750Y99049I5612*
G01*
G75*
G02X97750Y102112I5000J-2549*
G01*
G75*
G02X103362Y96500J-5612*
G01*
X103500*
G75*
G02X107750Y100750I4250*
G01*
G75*
G02X112000Y96500J-4250*
G01*
X124356*
Y107750*
X82112*
G37*
X124356D02*
G36*
Y117750D01*
X114581*
G75*
G02X103419I-5581*
G01*
X82112*
Y107750*
X124356*
G37*
X1144Y82750D02*
G36*
Y51500D01*
X12250*
G75*
G02X20750I4250*
G01*
X36654*
Y58009*
G75*
G02Y64991I3596J3491*
G01*
Y71500*
G75*
G02X36887Y73630I9846J1*
G01*
G75*
G02X34000Y72904I-2887J5369*
G01*
X28722*
G75*
G02X27703Y62268I-2222J-5154*
G01*
G75*
G02X27762Y61500I-4952J-767*
G01*
G75*
G02X19063Y58105I-5012*
G01*
G75*
G02X16654Y61500I1187J3395*
G01*
Y72750*
G75*
G02X24000Y80096I7346*
G01*
X31555*
G75*
G02X30888Y82750I4945J2654*
G01*
X20750*
G75*
G02X16500Y78500I-4250*
G01*
G75*
G02X12250Y82750J4250*
G01*
X1144*
G37*
X12250D02*
G36*
G75*
G02X16500Y87000I4250D01*
G01*
G75*
G02X20750Y82750J-4250*
G01*
X30888*
G75*
G02X36500Y88362I5612*
G01*
G75*
G02X41319Y79873J-5612*
G01*
G75*
G02X46500Y81346I5182J-8374*
G01*
X52192*
G75*
G02X62112Y77750I4308J-3596*
G01*
G75*
G02X52192Y74154I-5612*
G01*
X46500*
G75*
G03X43846Y71500J-2654*
G01*
Y71070*
G75*
G02X46500Y72000I2654J-3320*
G01*
G75*
G02Y63500J-4250*
G01*
G75*
G02X44633Y63932J4250*
G01*
G75*
G02X43846Y58009I-4383J-2432*
G01*
Y51222*
G75*
G02X54000Y51549I5154J-2222*
G01*
G75*
G02X54591Y52472I5000J-2548*
G01*
G75*
G02X50888Y57750I1909J5278*
G01*
G75*
G02X62112I5612*
G01*
G75*
G02X60909Y54278I-5612*
G01*
G75*
G02X63375Y52515I-1909J-5278*
G01*
G75*
G02X65503Y54143I4375J-3515*
G01*
G75*
G02X69154Y61761I2247J3607*
G01*
Y72316*
G75*
G02X62138Y77750I-1404J5434*
G01*
G75*
G02X69154Y83184I5612*
G01*
Y84000*
G75*
G03X66500Y86654I-2654*
G01*
G75*
G02X57904Y95250J8596*
G01*
Y122904*
X56500*
G75*
G02X52112Y124358J7346*
G01*
Y90888*
X40888*
Y96500*
X1144*
Y82750*
X12250*
G37*
X76346D02*
G36*
Y73945D01*
G75*
G02X84000Y71549I2654J-4945*
G01*
G75*
G02X94307Y70827I5000J-2549*
G01*
G75*
G02X104612Y67750I4693J-3077*
G01*
G75*
G02X93693Y65923I-5612*
G01*
G75*
G02X84000Y66451I-4693J3077*
G01*
G75*
G02X76346Y64055I-5000J2549*
G01*
Y54434*
G75*
G02X82058Y52596I1404J-5434*
G01*
X93009*
G75*
G02X100844Y51500I3491J-3596*
G01*
X106074*
G75*
G02X104638Y55250I4176J3750*
G01*
G75*
G02X115862I5612*
G01*
G75*
G02X114426Y51500I-5612*
G01*
X124356*
Y82750*
X101549*
G75*
G02X93388Y87750I-2549J5000*
G01*
G75*
G02X94951Y91636I5612*
G01*
G75*
G02X92750Y93951I2799J4865*
G01*
G75*
G02X90299Y91500I-5000J2549*
G01*
G75*
G02X93362Y86500I-2549J-5000*
G01*
G75*
G02X83574Y82750I-5612*
G01*
X76346*
G37*
X83574D02*
G36*
G75*
G02X82138Y86500I4176J3750D01*
G01*
G75*
G02X85201Y91500I5612*
G01*
G75*
G02X82138Y96500I2549J5000*
G01*
X82112*
Y90888*
X73536*
G75*
G02X76346Y84000I-7037J-6888*
G01*
Y82750*
X83574*
G37*
X124356D02*
G36*
Y96500D01*
X112000*
G75*
G02X107750Y92250I-4250*
G01*
G75*
G02X103500Y96500J4250*
G01*
X103362*
G75*
G02X101799Y92614I-5612*
G01*
G75*
G02X104612Y87750I-2799J-4864*
G01*
G75*
G02X101549Y82750I-5612*
G01*
X124356*
G37*
X1144Y126500D02*
G36*
Y117750D01*
X40888*
Y126500*
X33362*
G75*
G02X27750Y120888I-5612*
G01*
G75*
G02X22138Y126500J5612*
G01*
X22000*
G75*
G02X17750Y122250I-4250*
G01*
G75*
G02X13500Y126500J4250*
G01*
X1144*
G37*
X13500D02*
G36*
G75*
G02X17750Y130750I4250D01*
G01*
G75*
G02X22000Y126500J-4250*
G01*
X22138*
G75*
G02X23701Y130386I5612*
G01*
G75*
G02X20888Y135250I2799J4864*
G01*
G75*
G02X23951Y140250I5612*
G01*
X1144*
Y126500*
X13500*
G37*
X40888D02*
G36*
Y132112D01*
X49154*
Y140250*
X29049*
G75*
G02X32112Y135250I-2549J-5000*
G01*
G75*
G02X30549Y131364I-5612*
G01*
G75*
G02X33362Y126500I-2799J-4864*
G01*
X40888*
G37*
X82112D02*
G36*
Y117750D01*
X103419*
G75*
G02X114581I5581*
G01*
X124356*
Y126500*
X82112*
G37*
X124356D02*
G36*
Y140250D01*
X113250*
G75*
G02X109000Y136000I-4250*
G01*
G75*
G02X104750Y140250J4250*
G01*
X94612*
G75*
G02X89000Y134638I-5612*
G01*
G75*
G02X84181Y143127J5612*
G01*
G75*
G02X79000Y141654I-5181J8373*
G01*
X73308*
G75*
G02X63388Y145250I-4308J3596*
G01*
G75*
G02X73308Y148846I5612*
G01*
X79000*
G75*
G03X81654Y151500J2654*
G01*
Y151930*
G75*
G02X79000Y151000I-2654J3320*
G01*
G75*
G02Y159500J4250*
G01*
G75*
G02X80248Y159313I0J-4250*
G01*
G75*
G02X81654Y162491I5002J-313*
G01*
Y171778*
G75*
G02X71500Y171451I-5154J2222*
G01*
G75*
G02X70909Y170528I-5000J2548*
G01*
G75*
G02X74612Y165250I-1909J-5278*
G01*
G75*
G02X63388I-5612*
G01*
G75*
G02X64591Y168722I5612*
G01*
G75*
G02X62125Y170485I1909J5277*
G01*
G75*
G02X59997Y168857I-4375J3515*
G01*
G75*
G02X56346Y161239I-2247J-3607*
G01*
Y150684*
G75*
G02X63362Y145250I1404J-5434*
G01*
G75*
G02X56346Y139816I-5612*
G01*
Y130250*
G75*
G03X56500Y130096I154*
G01*
X70888*
Y132112*
X82112*
Y126500*
X124356*
G37*
X1144Y51500D02*
G36*
Y35250D01*
X12324*
G75*
G02X22112Y31500I4176J-3750*
G01*
G75*
G02X20909Y28028I-5612*
G01*
G75*
G02X24000Y25299I-1909J-5278*
G01*
G75*
G02X32572Y27079I5000J-2548*
G01*
X40006Y28472*
G75*
G02X43388Y36475I3994J3028*
G01*
G75*
G02Y36500I5574J13*
G01*
G75*
G02X44055Y39154I5612*
G01*
X44000*
G75*
G02X36654Y46500J7346*
G01*
Y51500*
X20750*
G75*
G02X12250I-4250*
G01*
X1144*
G37*
X100844D02*
G36*
G75*
G02X101356Y47760I-4344J-2500D01*
G01*
G75*
G02X106512Y42750I144J-5010*
G01*
G75*
G02X98050Y39114I-5012*
G01*
X80216*
G75*
G02X80862Y36500I-4966J-2614*
G01*
G75*
G02X80721Y35250I-5612*
G01*
X104638*
G75*
G02X115862I5612*
G01*
X124356*
Y51500*
X114426*
G75*
G02X106074I-4176J3750*
G01*
X100844*
G37*
X12167Y202069D02*
G36*
G75*
G02X15201Y206500I5583J-569D01*
G01*
X1144*
Y202069*
X12167*
G37*
X60556D02*
G36*
G75*
G02X58388Y206500I3444J4431D01*
G01*
X54500*
G75*
G02X46000I-4250*
G01*
X39312*
G75*
G02X32471Y204534I-4062J1250*
G01*
G75*
G02X33169Y202962I-4722J-3034*
G01*
G75*
G02X38834Y202069I2081J-5212*
G01*
X60556*
G37*
X75805D02*
G36*
G75*
G02X80072Y200829I695J-5569D01*
G01*
X91603Y202991*
G75*
G02X101500Y202799I4897J-2741*
G01*
G75*
G02X106500Y205862I5000J-2549*
G01*
G75*
G02X111809Y202069J-5612*
G01*
X124356*
Y206500*
X69612*
G75*
G02X67444Y202069I-5612*
G01*
X75805*
G37*
X15201Y206500D02*
G36*
G75*
G02X17750Y207112I2549J-5000D01*
G01*
G75*
G02X22750Y204049J-5612*
G01*
G75*
G02X31586Y205597I5000J-2549*
G01*
G75*
G02X31000Y207750I3664J2153*
G01*
G75*
G02X39500I4250*
G01*
G75*
G02X39312Y206500I-4250J0*
G01*
X46000*
G75*
G02X54500I4250*
G01*
X58388*
G75*
G02X69612I5612*
G01*
X124356*
Y220606*
X1144*
Y206500*
X15201*
G37*
X1144Y16500D02*
G36*
Y1144D01*
X124356*
Y16500*
X110299*
G75*
G02X107750Y15888I-2549J5000*
G01*
G75*
G02X102750Y18951J5612*
G01*
G75*
G02X93914Y17403I-5000J2549*
G01*
G75*
G02X94500Y15250I-3664J-2153*
G01*
G75*
G02X86000I-4250*
G01*
G75*
G02X86188Y16500I4250J1*
G01*
X79500*
G75*
G02X71000I-4250*
G01*
X67112*
G75*
G02X55888I-5612*
G01*
X1144*
G37*
X55888D02*
G36*
G75*
G02X67112I5612D01*
G01*
X71000*
G75*
G02X79500I4250*
G01*
X86188*
G75*
G02X93029Y18466I4062J-1250*
G01*
G75*
G02X92331Y20038I4721J3034*
G01*
G75*
G02X84638Y25250I-2081J5212*
G01*
G75*
G02X95669Y26712I5612*
G01*
G75*
G02X102750Y24049I2081J-5212*
G01*
G75*
G02X107750Y27112I5000J-2549*
G01*
G75*
G02X110299Y16500J-5612*
G01*
X124356*
Y35250*
X115862*
G75*
G02X104638I-5612*
G01*
X80721*
G75*
G02X69638Y36500I-5471J1250*
G01*
G75*
G02X70305Y39154I5612*
G01*
X66445*
G75*
G02X65096Y32192I-4945J-2654*
G01*
Y30250*
G75*
G02X57750Y22904I-7346*
G01*
X53308*
G75*
G02X45428Y22171I-4308J3596*
G01*
X33897Y20009*
G75*
G02X24000Y20201I-4897J2741*
G01*
G75*
G02X19000Y17138I-5000J2549*
G01*
G75*
G02X14591Y26222J5612*
G01*
G75*
G02X10888Y31500I1909J5278*
G01*
G75*
G02X12324Y35250I5612*
G01*
X1144*
Y16500*
X55888*
G37*
D02*
D13*
X13919Y107750D02*
X11919D01*
X14000Y51500D02*
X12000D01*
X14000Y82750D02*
X12000D01*
X15982Y124732D02*
X14568Y123318D01*
X15982Y128268D02*
X14568Y129682D01*
X16500Y49000D02*
Y47000D01*
Y54000D02*
Y56000D01*
Y80250D02*
Y78250D01*
Y85250D02*
Y87250D01*
X17750Y103919D02*
Y101919D01*
Y111581D02*
Y113581D01*
X19000Y51500D02*
X21000D01*
X19000Y82750D02*
X21000D01*
X19518Y124732D02*
X20932Y123318D01*
X19518Y128268D02*
X20932Y129682D01*
X21581Y107750D02*
X23581D01*
X32750Y207750D02*
X30750D01*
X35250Y210250D02*
Y212250D01*
X37750Y207750D02*
X39750D01*
X46500Y65250D02*
Y63250D01*
Y70250D02*
Y72250D01*
X47750Y206500D02*
X45750D01*
X49000Y67750D02*
X51000D01*
X50250Y204000D02*
Y202000D01*
Y209000D02*
Y211000D01*
X52750Y206500D02*
X54750D01*
X57750Y162750D02*
Y160750D01*
X60250Y165250D02*
X62250D01*
X65250Y57750D02*
X63250D01*
X67750Y60250D02*
Y62250D01*
X72750Y16500D02*
X70750D01*
X75250Y14000D02*
Y12000D01*
Y19000D02*
Y21000D01*
X76500Y155250D02*
X74500D01*
X77750Y16500D02*
X79750D01*
X79000Y152750D02*
Y150750D01*
Y157750D02*
Y159750D01*
X87750Y15250D02*
X85750D01*
X90250Y12750D02*
Y10750D01*
X92750Y15250D02*
X94750D01*
X105169Y117750D02*
X103169D01*
X105982Y94732D02*
X104568Y93318D01*
X105982Y98268D02*
X104568Y99682D01*
X106500Y140250D02*
X104500D01*
X106500Y171500D02*
X104500D01*
X109000Y113919D02*
Y111919D01*
Y121581D02*
Y123581D01*
Y137750D02*
Y135750D01*
Y142750D02*
Y144750D01*
Y169000D02*
Y167000D01*
Y174000D02*
Y176000D01*
X109518Y94732D02*
X110932Y93318D01*
X109518Y98268D02*
X110932Y99682D01*
X111500Y140250D02*
X113500D01*
X111500Y171500D02*
X113500D01*
X112831Y117750D02*
X114831D01*
D02*
D21*
X22750Y61500D03*
X24000Y180250D03*
X29000Y174000D03*
X40250Y61500D03*
X44000Y31500D03*
X81500Y191500D03*
X85250Y159000D03*
X96500Y49000D03*
X101500Y42750D03*
X102750Y161500D03*
D02*
D87*
X17750Y107750D03*
X109000Y117750D03*
D02*
D88*
X46500Y96500D03*
Y106500D03*
Y116500D03*
Y126500D03*
X76500Y96500D03*
Y106500D03*
Y116500D03*
Y126500D03*
D02*
D89*
X15250Y167750D03*
Y187750D03*
X16500Y31500D03*
Y51500D03*
Y82750D03*
X17750Y126500D03*
Y201500D03*
X19000Y22750D03*
X26500Y67750D03*
Y135250D03*
Y155250D03*
X27750Y126500D03*
Y201500D03*
X29000Y22750D03*
X35250Y197750D03*
Y207750D03*
X36500Y82750D03*
Y106500D03*
Y146500D03*
Y154000D03*
X46500Y67750D03*
Y154000D03*
X47750Y174000D03*
X49000Y26500D03*
Y36500D03*
Y49000D03*
X50250Y186500D03*
Y206500D03*
X56500Y57750D03*
Y77750D03*
X57750Y145250D03*
Y165250D03*
Y174000D03*
X59000Y49000D03*
X61500Y16500D03*
Y36500D03*
X64000Y186500D03*
Y206500D03*
X66500Y174000D03*
X67750Y49000D03*
Y57750D03*
Y77750D03*
X69000Y145250D03*
Y165250D03*
X75250Y16500D03*
Y36500D03*
X76500Y174000D03*
Y186500D03*
Y196500D03*
X77750Y49000D03*
X79000Y69000D03*
Y155250D03*
X87750Y86500D03*
Y96500D03*
X89000Y69000D03*
Y140250D03*
X90250Y15250D03*
Y25250D03*
X96500Y200250D03*
X97750Y21500D03*
Y96500D03*
X99000Y67750D03*
Y87750D03*
Y155250D03*
X106500Y200250D03*
X107750Y21500D03*
Y96500D03*
X109000Y140250D03*
Y171500D03*
Y191500D03*
X110250Y35250D03*
Y55250D03*
D02*
D90*
X22750Y61500D02*
X20250D01*
Y72750*
G75*
G02X24000Y76500I3750*
G01*
X34000*
G75*
G03X36500Y79000J2500*
G01*
Y82750*
X24000Y180250D02*
X50250D01*
Y186500*
X29000Y174000D02*
X47750D01*
X40250Y61500D02*
Y46500D01*
G75*
G03X44000Y42750I3750*
G01*
X45250*
G75*
G02X49000Y39000J-3750*
G01*
Y36500*
X40250Y61500D02*
Y71500D01*
G75*
G02X46500Y77750I6250*
G01*
X56500*
X44000Y31500D02*
X51500D01*
G75*
G03X55250Y35250J3750*
G01*
Y39000*
G75*
G02X59000Y42750I3750*
G01*
X72750*
X49000Y26500D02*
X29000Y22750D01*
X52750Y180250D02*
X50250D01*
Y186500*
X61500Y36500D02*
Y30250D01*
G75*
G02X57750Y26500I-3750*
G01*
X49000*
X64000Y186500D02*
Y192750D01*
G75*
G02X67750Y196500I3750*
G01*
X76500*
X72750Y42750D02*
X75250D01*
Y36500*
X72750Y42750D02*
Y84000D01*
G75*
G03X66500Y90250I-6250*
G01*
G75*
G02X61500Y95250J5000*
G01*
Y126500*
X76500*
X56500*
G75*
G02X52750Y130250J3750*
G01*
Y180250*
X76500Y196500D02*
X96500Y200250D01*
X81500Y191500D02*
X74000D01*
G75*
G03X70250Y187750J-3750*
G01*
Y184000*
G75*
G02X66500Y180250I-3750*
G01*
X52750*
X85250Y159000D02*
Y176500D01*
G75*
G03X81500Y180250I-3750*
G01*
X80250*
G75*
G02X76500Y184000J3750*
G01*
Y186500*
X85250Y159000D02*
Y151500D01*
G75*
G02X79000Y145250I-6250*
G01*
X69000*
X96500Y49000D02*
X77750D01*
X101500Y42750D02*
X75250D01*
Y36500*
X102750Y161500D02*
X105250D01*
Y150250*
G75*
G02X101500Y146500I-3750*
G01*
X91500*
G75*
G03X89000Y144000J-2500*
G01*
Y140250*
X0Y0D02*
M02*
