%FSLAX35Y35*%
%MOIN*%
G04 EasyPC Gerber Version 18.0.9 Build 3640 *
%ADD11C,0.00500*%
%ADD14C,0.10000*%
X0Y0D02*
D02*
D11*
X25250Y173687D02*
Y177437D01*
X28375*
X27750Y175563D02*
X25250D01*
Y193687D02*
Y197437D01*
X28375*
X27750Y195563D02*
X25250D01*
X26500Y37437D02*
Y41187D01*
X29625*
X29000Y39313D02*
X26500D01*
Y57437D02*
Y61187D01*
X29625*
X29000Y59313D02*
X26500D01*
Y88687D02*
Y92437D01*
X29625*
X29000Y90563D02*
X26500D01*
X27750Y113687D02*
Y117437D01*
X29937*
X30563Y117125*
X30875Y116500*
X30563Y115875*
X29937Y115563*
X27750*
X29937D02*
X30875Y113687D01*
X27750Y132437D02*
Y136187D01*
X30875*
X30250Y134313D02*
X27750D01*
Y207437D02*
Y211187D01*
X30875*
X30250Y209313D02*
X27750D01*
X29000Y28687D02*
Y32437D01*
X32125*
X31500Y30563D02*
X29000D01*
X32750Y67437D02*
Y71187D01*
X34313Y69313*
X35875Y71187*
Y67437*
X34000Y186187D02*
Y189937D01*
X35563Y188063*
X37125Y189937*
Y186187*
X36500Y73687D02*
Y77437D01*
X39625*
X39000Y75563D02*
X36500D01*
Y141187D02*
Y144937D01*
X39625*
X39000Y143063D02*
X36500D01*
Y161187D02*
Y164937D01*
X39625*
X39000Y163063D02*
X36500D01*
X37750Y132437D02*
Y136187D01*
X40875*
X40250Y134313D02*
X37750D01*
Y207437D02*
Y211187D01*
X40875*
X40250Y209313D02*
X37750D01*
X39000Y28687D02*
Y32437D01*
X42125*
X41500Y30563D02*
X39000D01*
Y179937D02*
Y183687D01*
X40563Y181813*
X42125Y183687*
Y179937*
X45250Y203687D02*
Y207437D01*
X48375*
X47750Y205563D02*
X45250D01*
Y213687D02*
Y217437D01*
X48375*
X47750Y215563D02*
X45250D01*
X46500Y88687D02*
Y92437D01*
X49625*
X49000Y90563D02*
X46500D01*
Y112437D02*
Y116187D01*
X49625*
X49000Y114313D02*
X46500D01*
Y152437D02*
Y156187D01*
X49625*
X49000Y154313D02*
X46500D01*
Y159937D02*
Y163687D01*
X49625*
X49000Y161813D02*
X46500D01*
X50250Y67437D02*
Y71187D01*
X51813Y69313*
X53375Y71187*
Y67437*
X54000Y37437D02*
Y41187D01*
X55563Y39313*
X57125Y41187*
Y37437*
X56500Y73687D02*
Y77437D01*
X59625*
X59000Y75563D02*
X56500D01*
Y102437D02*
X58063Y106187D01*
X59625Y102437*
X57125Y104000D02*
X59000D01*
X56500Y112437D02*
X58063Y116187D01*
X59625Y112437*
X57125Y114000D02*
X59000D01*
X56500Y122437D02*
X58063Y126187D01*
X59625Y122437*
X57125Y124000D02*
X59000D01*
X56500Y132437D02*
X58063Y136187D01*
X59625Y132437*
X57125Y134000D02*
X59000D01*
X56500Y159937D02*
Y163687D01*
X59625*
X59000Y161813D02*
X56500D01*
X57750Y179937D02*
Y183687D01*
X60875*
X60250Y181813D02*
X57750D01*
X59000Y32437D02*
Y36187D01*
X62125*
X61500Y34313D02*
X59000D01*
Y42437D02*
Y46187D01*
X62125*
X61500Y44313D02*
X59000D01*
Y54937D02*
Y58687D01*
X62125*
X61500Y56813D02*
X59000D01*
X60250Y192437D02*
Y196187D01*
X63375*
X62750Y194313D02*
X60250D01*
Y212437D02*
Y216187D01*
X63375*
X62750Y214313D02*
X60250D01*
X66500Y63687D02*
Y67437D01*
X69625*
X69000Y65563D02*
X66500D01*
Y83687D02*
Y87437D01*
X69625*
X69000Y85563D02*
X66500D01*
X67750Y151187D02*
Y154937D01*
X70875*
X70250Y153063D02*
X67750D01*
Y171187D02*
Y174937D01*
X70875*
X70250Y173063D02*
X67750D01*
Y179937D02*
Y183687D01*
X70875*
X70250Y181813D02*
X67750D01*
X69000Y54937D02*
Y58687D01*
X72125*
X71500Y56813D02*
X69000D01*
X71500Y22437D02*
Y26187D01*
X74625*
X74000Y24313D02*
X71500D01*
Y42437D02*
Y46187D01*
X74625*
X74000Y44313D02*
X71500D01*
X74000Y192437D02*
Y196187D01*
X77125*
X76500Y194313D02*
X74000D01*
Y212437D02*
Y216187D01*
X77125*
X76500Y214313D02*
X74000D01*
X76500Y179937D02*
Y183687D01*
X79625*
X79000Y181813D02*
X76500D01*
X77750Y54937D02*
Y58687D01*
X80875*
X80250Y56813D02*
X77750D01*
Y63687D02*
Y67437D01*
X80875*
X80250Y65563D02*
X77750D01*
Y83687D02*
Y87437D01*
X80875*
X80250Y85563D02*
X77750D01*
X79000Y151187D02*
Y154937D01*
X82125*
X81500Y153063D02*
X79000D01*
Y171187D02*
Y174937D01*
X82125*
X81500Y173063D02*
X79000D01*
X85250Y22437D02*
Y26187D01*
X88375*
X87750Y24313D02*
X85250D01*
Y42437D02*
Y46187D01*
X88375*
X87750Y44313D02*
X85250D01*
X86500Y102437D02*
X88063Y106187D01*
X89625Y102437*
X87125Y104000D02*
X89000D01*
X86500Y112437D02*
X88063Y116187D01*
X89625Y112437*
X87125Y114000D02*
X89000D01*
X86500Y122437D02*
X88063Y126187D01*
X89625Y122437*
X87125Y124000D02*
X89000D01*
X86500Y132437D02*
X88063Y136187D01*
X89625Y132437*
X87125Y134000D02*
X89000D01*
X86500Y179937D02*
Y183687D01*
X89625*
X89000Y181813D02*
X86500D01*
Y192437D02*
Y196187D01*
X89625*
X89000Y194313D02*
X86500D01*
Y202437D02*
Y206187D01*
X89625*
X89000Y204313D02*
X86500D01*
X87750Y54937D02*
Y58687D01*
X90875*
X90250Y56813D02*
X87750D01*
X89000Y74937D02*
Y78687D01*
X92125*
X91500Y76813D02*
X89000D01*
Y161187D02*
Y164937D01*
X92125*
X91500Y163063D02*
X89000D01*
X91500Y197437D02*
Y201187D01*
X93063Y199313*
X94625Y201187*
Y197437*
X95250Y164937D02*
Y168687D01*
X96813Y166813*
X98375Y168687*
Y164937*
X97750Y92437D02*
Y96187D01*
X100875*
X100250Y94313D02*
X97750D01*
Y102437D02*
Y106187D01*
X100875*
X100250Y104313D02*
X97750D01*
X99000Y74937D02*
Y78687D01*
X102125*
X101500Y76813D02*
X99000D01*
Y146187D02*
Y149937D01*
X102125*
X101500Y148063D02*
X99000D01*
X100250Y21187D02*
Y24937D01*
X103375*
X102750Y23063D02*
X100250D01*
Y31187D02*
Y34937D01*
X103375*
X102750Y33063D02*
X100250D01*
X106500Y54937D02*
Y58687D01*
X108063Y56813*
X109625Y58687*
Y54937*
X106500Y206187D02*
Y209937D01*
X109625*
X109000Y208063D02*
X106500D01*
X107750Y27437D02*
Y31187D01*
X110875*
X110250Y29313D02*
X107750D01*
Y102437D02*
Y106187D01*
X110875*
X110250Y104313D02*
X107750D01*
X109000Y73687D02*
Y77437D01*
X112125*
X111500Y75563D02*
X109000D01*
Y93687D02*
Y97437D01*
X112125*
X111500Y95563D02*
X109000D01*
Y161187D02*
Y164937D01*
X112125*
X111500Y163063D02*
X109000D01*
X111500Y48687D02*
Y52437D01*
X113063Y50563*
X114625Y52437*
Y48687*
X112750Y167437D02*
Y171187D01*
X114313Y169313*
X115875Y171187*
Y167437*
X116500Y206187D02*
Y209937D01*
X119625*
X119000Y208063D02*
X116500D01*
X117750Y27437D02*
Y31187D01*
X120875*
X120250Y29313D02*
X117750D01*
Y102437D02*
Y106187D01*
X120875*
X120250Y104313D02*
X117750D01*
X119000Y123687D02*
Y127437D01*
X121187*
X121813Y127125*
X122125Y126500*
X121813Y125875*
X121187Y125563*
X119000*
X121187D02*
X122125Y123687D01*
X119000Y146187D02*
Y149937D01*
X122125*
X121500Y148063D02*
X119000D01*
Y177437D02*
Y181187D01*
X122125*
X121500Y179313D02*
X119000D01*
Y197437D02*
Y201187D01*
X122125*
X121500Y199313D02*
X119000D01*
X120250Y41187D02*
Y44937D01*
X123375*
X122750Y43063D02*
X120250D01*
Y61187D02*
Y64937D01*
X123375*
X122750Y63063D02*
X120250D01*
D02*
D14*
X15250Y167750D03*
Y187750D03*
X16500Y31500D03*
Y51500D03*
Y82750D03*
X17750Y107750D03*
Y126500D03*
Y201500D03*
X19000Y22750D03*
X22750Y61500D03*
X24000Y180250D03*
X26500Y67750D03*
Y135250D03*
Y155250D03*
X27750Y126500D03*
Y201500D03*
X29000Y22750D03*
Y174000D03*
X35250Y197750D03*
Y207750D03*
X36500Y82750D03*
Y106500D03*
Y146500D03*
Y154000D03*
X40250Y61500D03*
X44000Y31500D03*
X46500Y67750D03*
Y96500D03*
Y106500D03*
Y116500D03*
Y126500D03*
Y154000D03*
X47750Y174000D03*
X49000Y26500D03*
Y36500D03*
Y49000D03*
X50250Y186500D03*
Y206500D03*
X56500Y57750D03*
Y77750D03*
X57750Y145250D03*
Y165250D03*
Y174000D03*
X59000Y49000D03*
X61500Y16500D03*
Y36500D03*
X64000Y186500D03*
Y206500D03*
X66500Y174000D03*
X67750Y49000D03*
Y57750D03*
Y77750D03*
X69000Y145250D03*
Y165250D03*
X75250Y16500D03*
Y36500D03*
X76500Y96500D03*
Y106500D03*
Y116500D03*
Y126500D03*
Y174000D03*
Y186500D03*
Y196500D03*
X77750Y49000D03*
X79000Y69000D03*
Y155250D03*
X81500Y191500D03*
X85250Y159000D03*
X87750Y86500D03*
Y96500D03*
X89000Y69000D03*
Y140250D03*
X90250Y15250D03*
Y25250D03*
X96500Y49000D03*
Y200250D03*
X97750Y21500D03*
Y96500D03*
X99000Y67750D03*
Y87750D03*
Y155250D03*
X101500Y42750D03*
X102750Y161500D03*
X106500Y200250D03*
X107750Y21500D03*
Y96500D03*
X109000Y117750D03*
Y140250D03*
Y171500D03*
Y191500D03*
X110250Y35250D03*
Y55250D03*
X0Y0D02*
M02*
